{
    "aciklama": "potasyum sorbat / Soarbik asit potasyum tuzu Sorbikasitin potasyum tuzu (E200), Avrupa dağ- ağacının meyvesinde (Sorbusaucuparia) , doğal olarak bulunur ardından asit isimlendirilir.Ticari olarak birçok farklı kimyasal yollarla üretilir.Sorbik asit özellikle mantar ve mayalara karşı, bir koruyucudur. Bakterilere karşı etkili değildir. En iyi aktivitesi 6.5 ‘in altındaki pH değerlerindedir (asidik ve az asidik gidalar). Birçok ürün de bulunur.Kulllanılan konsantrasyonlarda yan etkileri yoktur. Yalnızca insanların çok küçük bir yüzdelik oranı hafif yalancı – alerjik reaksiyonlar gösterirler "
}
