{
    "aciklama": "Askorbik Asittir. Antioksidandır. c vitamini sentetik olarak glikozdan sağlanabilir doğal olarak sebze ve meyvelerde bulunur ,et ,unlu ürünler , dondurulmuş balık gibi ürünlerde kullanılır."
}
